DAY7/COUNTER/ASYNCHRONOUS_COUNTER/POSEDGE_ASYNCHRONOUS_COUNTER/POSEG_AS_DOWN_COUNTER/POSEG_AS_DN_COUNTER_DFF/Asy_upcnt_dump.vcd
$date
	Mon Oct 27 18:53:24 2025
$end
$version
	Icarus Verilog
$end
$timescale
	1ps
$end
$scope module asy_dncnt_tb $end
$var wire 4 ! q [3:0] $end
$var reg 1 " clk $end
$var reg 1 # rst $end
$scope module asdc $end
$var wire 1 " clk $end
$var wire 1 # rst $end
$var wire 4 $ q_bar [3:0] $end
$var wire 4 % q [3:0] $end
$scope module df0 $end
$var wire 1 " clk $end
$var wire 1 & d $end
$var wire 1 ' q_bar $end
$var wire 1 # rst $end
$var reg 1 ( q $end
$upscope $end
$scope module df1 $end
$var wire 1 ) clk $end
$var wire 1 * d $end
$var wire 1 + q_bar $end
$var wire 1 # rst $end
$var reg 1 , q $end
$upscope $end
$scope module df2 $end
$var wire 1 - clk $end
$var wire 1 . d $end
$var wire 1 / q_bar $end
$var wire 1 # rst $end
$var reg 1 0 q $end
$upscope $end
$scope module df3 $end
$var wire 1 1 clk $end
$var wire 1 2 d $end
$var wire 1 3 q_bar $end
$var wire 1 # rst $end
$var reg 1 4 q $end
$upscope $end
$upscope $end
$upscope $end
$enddefinitions $end
$comment Show the parameter values. $end
$dumpall
$end
#0
$dumpvars
04
13
12
01
00
1/
1.
0-
0,
1+
1*
0)
0(
1'
1&
b0 %
b1111 $
1#
0"
b0 !
$end
#5000
1"
#10000
0"
#15000
02
03
14
0.
0/
11
10
0*
0+
1-
1,
0&
b0 $
0'
1)
b1111 !
b1111 %
1(
0"
0#
#20000
1&
b1 $
1'
0)
b1110 !
b1110 %
0(
1"
#25000
0"
#30000
1*
1+
0-
0,
0&
b10 $
0'
1)
b1101 !
b1101 %
1(
1"
#35000
0"
#40000
1&
b11 $
1'
0)
b1100 !
b1100 %
0(
1"
#45000
0"
#50000
1.
1/
01
00
0*
0+
1-
1,
0&
b100 $
0'
1)
b1011 !
b1011 %
1(
1"
#55000
0"
#60000
1&
b101 $
1'
0)
b1010 !
b1010 %
0(
1"
#65000
0"
#70000
1*
1+
0-
0,
0&
b110 $
0'
1)
b1001 !
b1001 %
1(
1"
#75000
0"
#80000
1&
b111 $
1'
0)
b1000 !
b1000 %
0(
1"
#85000
0"
#90000
12
13
04
0.
0/
11
10
0*
0+
1-
1,
0&
b1000 $
0'
1)
b111 !
b111 %
1(
1"
#95000
0"
#100000
1&
b1001 $
1'
0)
b110 !
b110 %
0(
1"
#105000
0"
#110000
1*
1+
0-
0,
0&
b1010 $
0'
1)
b101 !
b101 %
1(
1"
#115000
0"
#120000
1&
b1011 $
1'
0)
b100 !
b100 %
0(
1"
#125000
0"
#130000
1.
1/
01
00
0*
0+
1-
1,
0&
b1100 $
0'
1)
b11 !
b11 %
1(
1"
#135000
0"
#140000
1&
b1101 $
1'
0)
b10 !
b10 %
0(
1"
#145000
0"
#150000
1*
1+
0-
0,
0&
b1110 $
0'
1)
b1 !
b1 %
1(
1"
#155000
0"
#160000
1&
b1111 $
1'
0)
b0 !
b0 %
0(
1"
#165000
0"
#170000
02
03
14
0.
0/
11
10
0*
0+
1-
1,
0&
b0 $
0'
1)
b1111 !
b1111 %
1(
1"
#175000
0"
#180000
1&
b1 $
1'
0)
b1110 !
b1110 %
0(
1"
#185000
0"
#190000
1*
1+
0-
0,
0&
b10 $
0'
1)
b1101 !
b1101 %
1(
1"
#195000
0"
#200000
1&
b11 $
1'
0)
b1100 !
b1100 %
0(
1"
